{
  "Directories":
  [
    {
      "name": "kekeke",
      "extension": "lalala",
      "deleteSubdirectories": false
    },
    {
      "name": "kokok",
      "extension": "ululul",
      "deleteSubdirectories": false
    }
  ]
}
